{
  "id": "1c008c67-94a0-4a23-b08a-0017bb5c435e",
  "schema": "https://metadata.datadrivendiscovery.org/schemas/v0/pipeline.json",
  "created": "2019-11-22T19:37:13.050794Z",
  "inputs": [
    {
      "name": "input dataset"
    }
  ],
  "outputs": [
    {
      "data": "steps.6.produce",
      "name": "predictions of input dataset"
    }
  ],
  "steps": [
    {
      "type": "PRIMITIVE",
      "primitive": {
        "id": "f31f8c1f-d1c5-43e5-a4b2-2ae4a761ef2e",
        "version": "0.2.0",
        "python_path": "d3m.primitives.data_transformation.denormalize.Common",
        "name": "Denormalize datasets",
        "digest": "80ddde3709877015f7e5d262621fb4c25a2db0c7ba03c62c4fdf80cd3ede5d5b"
      },
      "arguments": {
        "inputs": {
          "type": "CONTAINER",
          "data": "inputs.0"
        }
      },
      "outputs": [
        {
          "id": "produce"
        }
      ]
    },
    {
      "type": "PRIMITIVE",
      "primitive": {
        "id": "4b42ce1e-9b98-4a25-b68e-fad13311eb65",
        "version": "0.3.0",
        "python_path": "d3m.primitives.data_transformation.dataset_to_dataframe.Common",
        "name": "Extract a DataFrame from a Dataset",
        "digest": "57475517f8d20c260757a13497239c3ddfb3c0949ab9769e5c177c18b919eaa1"
      },
      "arguments": {
        "inputs": {
          "type": "CONTAINER",
          "data": "steps.0.produce"
        }
      },
      "outputs": [
        {
          "id": "produce"
        }
      ]
    },
    {
      "type": "PRIMITIVE",
      "primitive": {
        "id": "4503a4c6-42f7-45a1-a1d4-ed69699cf5e1",
        "version": "0.3.0",
        "python_path": "d3m.primitives.data_transformation.extract_columns_by_semantic_types.Common",
        "name": "Extracts columns by semantic type",
        "digest": "75a68013cd3c12e77ba31e392298d2a62766ae00d556fdaf30401f7ba4a29b8c"
      },
      "arguments": {
        "inputs": {
          "type": "CONTAINER",
          "data": "steps.1.produce"
        }
      },
      "outputs": [
        {
          "id": "produce"
        }
      ],
      "hyperparams": {
        "semantic_types": {
          "type": "VALUE",
          "data": [
            "https://metadata.datadrivendiscovery.org/types/PrimaryKey",
            "https://metadata.datadrivendiscovery.org/types/FileName"
          ]
        }
      }
    },
    {
      "type": "PRIMITIVE",
      "primitive": {
        "id": "4503a4c6-42f7-45a1-a1d4-ed69699cf5e1",
        "version": "0.3.0",
        "python_path": "d3m.primitives.data_transformation.extract_columns_by_semantic_types.Common",
        "name": "Extracts columns by semantic type",
        "digest": "75a68013cd3c12e77ba31e392298d2a62766ae00d556fdaf30401f7ba4a29b8c"
      },
      "arguments": {
        "inputs": {
          "type": "CONTAINER",
          "data": "steps.1.produce"
        }
      },
      "outputs": [
        {
          "id": "produce"
        }
      ],
      "hyperparams": {
        "semantic_types": {
          "type": "VALUE",
          "data": [
            "https://metadata.datadrivendiscovery.org/types/TrueTarget"
          ]
        }
      }
    },
    {
      "type": "PRIMITIVE",
      "primitive": {
        "id": "a29b0080-aeff-407d-9edb-0aa3eefbde01",
        "version": "0.2.0",
        "python_path": "d3m.primitives.data_preprocessing.video_reader.Common",
        "name": "Columns video reader",
        "digest": "2bf58ef4d85bf00cf5c03668485976c88f3e3be39ede0aa40889cc6cf0ec71c7"
      },
      "arguments": {
        "inputs": {
          "type": "CONTAINER",
          "data": "steps.2.produce"
        }
      },
      "outputs": [
        {
          "id": "produce"
        }
      ]
    },
    {
      "type": "PRIMITIVE",
      "primitive": {
        "id": "dsbox-featurizer-image-inceptionV3",
        "version": "1.5.3",
        "python_path": "d3m.primitives.feature_extraction.inceptionV3_image_feature.DSBOX",
        "name": "DSBox Image Featurizer inceptionV3",
        "digest": "ff1f98d2c252e9f725ffc9dc055269a8fe36ad12758ae480cb04c5d5fbd0db3f"
      },
      "arguments": {
        "inputs": {
          "type": "CONTAINER",
          "data": "steps.4.produce"
        }
      },
      "outputs": [
        {
          "id": "produce"
        }
      ],
      "hyperparams": {
        "use_limitation": {
          "type": "VALUE",
          "data": true
        }
      }
    },
    {
      "type": "PRIMITIVE",
      "primitive": {
        "id": "dsbox-featurizer-video-classification-lstm",
        "version": "1.5.3",
        "python_path": "d3m.primitives.classification.lstm.DSBOX",
        "name": "DSBox Video Classification LSTM",
        "digest": "92e8d4f154eb70f907b10dc60e1cc339f6556f527156b5e9c3c2438ed8a05e30"
      },
      "arguments": {
        "inputs": {
          "type": "CONTAINER",
          "data": "steps.5.produce"
        },
        "outputs": {
          "type": "CONTAINER",
          "data": "steps.3.produce"
        }
      },
      "outputs": [
        {
          "id": "produce"
        }
      ],
      "hyperparams": {
        "LSTM_units": {
          "type": "VALUE",
          "data": 2048
        },
        "epochs": {
          "type": "VALUE",
          "data": 2000
        },
        "validate_data_percent": {
         "type": "VALUE",
         "data": 0.1
        }
      }
    }
  ],
  "name": "DefaultVideoClassificationTemplate:140592677584832",
  "description": "",
  "digest": "39ba98b32f7a02d197c0920dab48265c89df8046bd2ba59eb768d49fd2dfd080"
}
