{
    "id": "e3973b6b-0f18-493b-b2f2-788ec7e9cc0e",
    "schema": "https://metadata.datadrivendiscovery.org/schemas/v0/pipeline.json",
    "created": "2019-06-06T22:45:05.066692Z",
    "inputs": [
        {
            "name": "inputs"
        }
    ],
    "outputs": [
        {
            "data": "steps.0.produce",
            "name": "results"
        }
    ],
    "steps": [
        {
            "type": "PRIMITIVE",
            "primitive": {
                "id": "4d989759-affd-4a51-a4e6-1a05a5c1d1c8",
                "version": "1.4.8",
                "python_path": "d3m.primitives.classification.general_relational_dataset.GeneralRelationalDataset",
                "name": "General Relational Dataset"
            },
            "arguments": {
                "inputs": {
                    "type": "CONTAINER",
                    "data": "inputs.0"
                }
            },
            "outputs": [
                {
                    "id": "produce"
                }
            ]
        }
    ]
}